Decennial Estimates by MSA — get_decennial_msa • mycensus
…
    Author

    Christy Lam

    Examples

Sys.getenv("CENSUS_API_KEY")
#> [1] "325779a5606507b511316d1ecd4328aa21cfc70d"
get_decennial_msa(table_codes = c("H001"), year = 2010)
#> Getting data from the 2010 decennial Census
#> Loading SF1 variables for 2010 from table H001. To cache this dataset for faster access to Census tables in the future, run this function with `cache_table = TRUE`. You only need to do this once per Census dataset.
#> Using Census Summary File 1
#> # A tibble: 955 × 4
#>    GEOID NAME                                        variable  value
#>    <chr> <chr>                                       <chr>     <dbl>
#>  1 31540 Madison, WI Metro Area                      H001001  252878
#>  2 31580 Madisonville, KY Micro Area                 H001001   21180
#>  3 36820 Oskaloosa, IA Micro Area                    H001001    9766
#>  4 36860 Ottawa-Streator, IL Micro Area              H001001   68772
#>  5 36900 Ottumwa, IA Micro Area                      H001001   16098
#>  6 36940 Owatonna, MN Micro Area                     H001001   15343
#>  7 36980 Owensboro, KY Metro Area                    H001001   49450
#>  8 37020 Owosso, MI Micro Area                       H001001   30319
#>  9 37060 Oxford, MS Micro Area                       H001001   22729
#> 10 37100 Oxnard-Thousand Oaks-Ventura, CA Metro Area H001001  281695
#> # ℹ 945 more rows
…
